Motorola DSP56300 Assembler  Version 6.2.0   115-04-02  20:37:10  main.asm  Page 1



1                                    page    132,60
**** 2 [main.asm 2]: ERROR --- Cannot open include file: ..\Ioequ.inc (Operand field)
2                                    include "..\Ioequ.inc"
**** 3 [main.asm 3]: ERROR --- Cannot open include file: ..\vectors4.inc (Operand field)
3                                    include "..\vectors4.inc"
5      
6                          ;---------------------------------------------------------------------------------------------------
7                          ;   FilterExample.asm
8                          ;       This file is setup to work with the Line 6 / Freescale Tone Core Developer's Kit.
9                          ;       It is a simple 2 band stereo EQ with control over filter type, frequency, bandwidth
10                         ;       and shelving level for each band.
11                         ;
12                         ;   Line 6,  November 30, 2007
13                         ;               Copyright (c) 2008 Line 6 Inc
14                         ;               Line 6 Confidential Information
15                         ;
16                         ;---------------------------------------------------------------------------------------------------
17                         ;    Services performed by LINE 6 in this matter are performed AS IS and without any warranty.
18                         ;    CUSTOMER retains the final decision relative to the total design and functionality of the
19                         ;    end product. LINE 6 neither guarantees nor will be held liable by CUSTOMER for the
20                         ;    success of this project. LINE 6 disclaims all warranties, express, implied or statutory
21                         ;    including, but not limited to, implied warranty of merchantability or fitness for a
22                         ;    particular purpose on any hardware, software ore advise supplied to the project by LINE 6,
23                         ;    and or any product resulting from LINE 6 services . In no event shall LINE 6 be
24                         ;    liable for incidental or consequential damages arising out of this agreement. CUSTOMER
25                         ;    agrees to hold LINE 6 harmless against any and all claims demands or actions by anyone
26                         ;    on account of any damage, or injury, whether commercial, contractual, or tortuous, rising
27                         ;    directly or indirectly as a result of the advise or assistance supplied CUSTOMER in
28                         ;    connection with product, services or goods supplied under this Agreement.
29                         ;---------------------------------------------------------------------------------------------------
30     
31        X:000000                   org     x:$000
32                         ;...Knob registers expect a value of 0x000000 thru 0x7FFFFF from the microcontroller
33        X:000000         Knob_1    ds      1                                 ; 00h
34        X:000001         Knob_2    ds      1                                 ; 01h
35        X:000002         Knob_3    ds      1                                 ; 02h
36        X:000003         Knob_4    ds      1                                 ; 03h
37        X:000004         Knob_5    ds      1                                 ; 04h
38        X:000005         Knob_6    ds      1                                 ; 05h
39     
40                         ;...Switch registers expect a value of 0,1, or 2 from the microcontroller
41        X:000006         Switch_1  ds      1                                 ; 06h
42        X:000007         Switch_2  ds      1                                 ; 07h
43     
44                         ;...FootSwitch registers expect a value of 0x000000 or 0x000001 from the microcontroller
45                         FootSwitch_TopLayer
46        X:000008                   ds      1                                 ; 08h
47                         FootSwitch_BottomLayer
48        X:000009                   ds      1                                 ; 09h
49     
50                         ;...LED registers are read by the micro and should be set to 0x000000 or 0x000001  (off and on)
51        X:00000A         LED_Red   ds      1                                 ; 0ah
52        X:00000B         LED_Green ds      1                                 ; 0bh
53     
54                         ;...RX and TX registers
55        X:00000C         LeftRx    ds      1                                 ; 0ch   Left received sample
Motorola DSP56300 Assembler  Version 6.2.0   115-04-02  20:37:10  main.asm  Page 2



56        X:00000D         RightRx   ds      1                                 ; 0dh   Right received sample
57        X:00000E         LeftTx    ds      1                                 ; 0eh   Left sample to transmit
58        X:00000F         RightTx   ds      1                                 ; 0fh   Right sample to transmit
59                         SHI_StateMachine
60        X:000010                   ds      1                                 ; 10h   current state of the serial host interface
61                         HostCommand
62        X:000011                   ds      1                                 ; 11h   current SHI command
63     
64                         ;...Debug registers
65                         Debug_Write_to_DSP_1
66        X:000012                   ds      1                                 ; 12h   recieves data from the ToneCoreGUI applicatio
n
67                         Debug_Write_to_DSP_2
68        X:000013                   ds      1                                 ; 13h   recieves data from the ToneCoreGUI applicatio
n
69                         Debug_Write_to_DSP_3
70        X:000014                   ds      1                                 ; 14h   recieves data from the ToneCoreGUI applicatio
n
71                         Debug_Write_to_DSP_4
72        X:000015                   ds      1                                 ; 15h   recieves data from the ToneCoreGUI applicatio
n
73                         Debug_Read_from_DSP_1
74        X:000016                   ds      1                                 ; 16h   send data to the ToneCoreGUI application
75                         Debug_Read_from_DSP_2
76        X:000017                   ds      1                                 ; 17h   send data to the ToneCoreGUI application
77                         Debug_Read_from_DSP_3
78        X:000018                   ds      1                                 ; 18h   send data to the ToneCoreGUI application
79                         Debug_Read_from_DSP_4
80        X:000019                   ds      1                                 ; 19h   send data to the ToneCoreGUI application
81     
82     
83                         ;...The following registers are used to store filter coefficients
84        X:00001A         Filter_1_K ds     1                                 ; 1ah
85        X:00001B         Filter_1_Q ds     1                                 ; 1bh
86                         Filter_1_Shelve
87        X:00001C                   ds      1                                 ; 1ch
88     
89        X:00001D         Filter_2_K ds     1                                 ; 1dh
90        X:00001E         Filter_2_Q ds     1                                 ; 1eh
91                         Filter_2_Shelve
92        X:00001F                   ds      1                                 ; 1fh
93     
94        X:000020         FootLatch ds      1                                 ; 20h
95                         FootLatchMem
96        X:000021                   ds      1                                 ; 21h
97     
98     
99        Y:000000                   org     y:$000
100                        ;...copy of current input and output samples
101       Y:000000         LeftInput ds      1                                 ; 00h
102       Y:000001         LeftOutput ds     1                                 ; 01h
103       Y:000002         RightInput ds     1                                 ; 02h
104                        RightOutput
105       Y:000003                   ds      1                                 ; 03h
106    
107    
Motorola DSP56300 Assembler  Version 6.2.0   115-04-02  20:37:10  main.asm  Page 3



108                        ;...Filter memory
109                        Filter_1_A_Left
110       Y:000004                   ds      1                                 ; 04h
111                        Filter_1_Y_Left
112       Y:000005                   ds      1                                 ; 05h
113    
114                        Filter_2_A_Left
115       Y:000006                   ds      1                                 ; 06h
116                        Filter_2_Y_Left
117       Y:000007                   ds      1                                 ; 07h
118    
119                        Filter_1_A_Right
120       Y:000008                   ds      1                                 ; 08h
121                        Filter_1_Y_Right
122       Y:000009                   ds      1                                 ; 09h
123    
124                        Filter_2_A_Right
125       Y:00000A                   ds      1                                 ; 0ah
126                        Filter_2_Y_Right
127       Y:00000B                   ds      1                                 ; 0bh
128    
129    
130                        ;**************************************************************************
131    
132       P:00004E                   org     p:$4E
133                        START
134       P:00004E 0003F8            ori     #$03,mr                           ; mask interrupts
**** 135 [main.asm 111]: ERROR --- I/O short addressing must be used for destination operand (X data move field)
135       P:00004F 084000            movep             #$2D0063,X:M_PCTL       ; Set PLL Control Register
                   000000
136                                                                            ; Fosc = 100 MHz = (100)(3 MHz)/3
137    
138       P:000051 0AFA6E            bset    #14,omr                           ; allow address attributes line to function independe
ntly
139    
**** 140 [main.asm 116]: ERROR --- I/O short addressing must be used for destination operand (X data move field)
140       P:000052 084000            movep             #>$000040,x:M_SAICR     ; 4x4 Synchronous mode (use TX frame and bit clks)
                   000000
141    
**** 142 [main.asm 118]: ERROR --- I/O short addressing must be used for destination operand (X data move field)
142       P:000054 084000            movep             #$FCC304,x:M_TCCR
                   000000
143                                                                            ;THCKD -1- HCKT is an output                         
 (bit  23)
144                                                                            ;TFSD  -1- FST is output                             
 (bit  22)
145                                                                            ;TCKD  -1- internal clock source drives SCKT         
 (bit  21)
146                                                                            ;THCKP -1- Transmitter High Freq Clock Polarity      
 (bit  20)
147                                                                            ;TFSP  -1- negative FST polarity                     
 (bit  19)
148                                                                            ;TCKP  -1- data & FST clocked out on falling edge    
 (bit  18)
149                                                                            ;TFP   -3- TFP3..0 = Divide by 4                     
 (bits 17:14)
Motorola DSP56300 Assembler  Version 6.2.0   115-04-02  20:37:10  main.asm  Page 4



150                                                                            ;TDC   -1- 2 words per frame                         
 (bits 13:9)
151                                                                            ;TPSR  -1- Bypass Fixed /8 Prescaler                 
 (bit  8)
152                                                                            ;TPM   -4- TPM7-0 = Divide by 5                      
 (bits 7:0)
153    
**** 154 [main.asm 130]: ERROR --- I/O short addressing must be used for destination operand (X data move field)
154       P:000056 084000            movep             #$FCC304,x:M_RCCR
                   000000
155                                                                            ;RHCKD -1- HCKR is an output  Flag 2                 
 (bit  23)
156                                                                            ;RFSD  -1- FSR is output      Flag 1                 
 (bit  22)
157                                                                            ;RCKD  -1- SCKR is output     Flag 0                 
 (bit  21)
158                                                                            ;RHCKP -1- Pos. High Freq Clock Polarity             
 (bit  20)
159                                                                            ;RFSP  -1- negative FSR polarity                     
 (bit  19)
160                                                                            ;RCKP  -1- data & FSR clocked in on falling edge     
 (bit  18)
161                                                                            ;RFP   -3- RFP3..0 = Divide by 4                     
 (bits 17:14)
162                                                                            ;RDC   -1- 2 words per frame                         
 (bit  13:9)
163                                                                            ;RPSR  -1- Bypass Fixed /8 Prescaler                 
 (bit  8)
164                                                                            ;RPM   -4- RPM7-0 = Divide by 5                      
 (bits 7:0)
165    
**** 166 [main.asm 142]: ERROR --- I/O short addressing must be used for destination operand (X data move field)
166       P:000058 084000            movep             #$707d00,x:M_RCR
                   000000
167                                                                            ;RE    --- RX0, RX1, RX2, RX3 disabled               
 (bit3:0=0000)
168                                                                            ;RSHFD -0- MSB shifted first                         
 (bit6=0)
169                                                                            ;RWA   -0- word left-aligned                         
 (bit7=0)
170                                                                            ;RMOD  -1- network mode                              
 (bit9:8=01)
171                                                                            ;RSWS  1F- 32-bit slot length, 24-bit word length    
 (bit14:10=11111)
172                                                                            ;RFSL  -0- word-length frame sync                    
 (bit15=0)
173                                                                            ;RFSR  -0- frame sync occurs 1 clock cycle earlier   
 (bit16=1)
174                                                                            ;          reserved                                  
 (bit18:17=00)
175                                                                            ;RPR   ?-0- transmit normally, not personal reset    
  (bit19=0)
176                                                                            ;          RIE, REDIE, REIE enabled                  
(bit23:20=0111)
177                                                                            ;RLIE  --- bit23 RLIE
178                                                                            ;RIE   --- bit22 RIE
Motorola DSP56300 Assembler  Version 6.2.0   115-04-02  20:37:10  main.asm  Page 5



179                                                                            ;REDIE --- bit21 REDIE
180                                                                            ;REIE  --- bit20 REIE
181    
**** 182 [main.asm 158]: ERROR --- I/O short addressing must be used for destination operand (X data move field)
182       P:00005A 084000            movep             #$027D80,x:M_TCR
                   000000
183                                                                            ;TE    --- Start w/ TX0-TX5 disabled                 
 (bit5:0=000000)
184                                                                            ;TSHFD -0- MSB shifted first                         
 (bit6=0)
185                                                                            ;TWA   -1- word left-aligned                         
 (bit7=0)
186                                                                            ;TMOD  -1- network mode                              
 (bit9:8=01)
187                                                                            ;TSWS  1F- 32-bit slot length, 24-bit word length    
 (bit14:10=11111)
188                                                                            ;TFSL  -0- word length frame sync                    
 (bit15=0)
189                                                                            ;TFSR  -0- frame sync occurs 1 clock cycle earlier   
 (bit16=1)
190                                                                            ;PADC  -1- zero padding enabled                      
 (bit17=1)
191                                                                            ;          reserved                                  
 (bit18)
192                                                                            ;TRP   ?-0- transmit normally, not personal reset    
  (bit19=0)
193                                                                            ;          TLIE, TIE, TEIE disabled                  
 (bit23:20=0000)
194                                                                            ;TLIE  --- bit23 TLIE
195                                                                            ;TIE   --- bit22 TIE
196                                                                            ;TEDIE --- bit21 TEDIE
197                                                                            ;TEIE  --- bit20 TEIE
198    
199    
**** 200 [main.asm 176]: ERROR --- I/O short addressing must be used for destination operand (X data move field)
200       P:00005C 084000            movep             #>$000000,x:M_PDRC      ; Clear Port C data
                   000000
**** 201 [main.asm 177]: ERROR --- I/O short addressing must be used for destination operand (X data move field)
201       P:00005E 084000            movep             #>$000BF8,x:M_PCRC      ; Set appropriate Port C GPIO pins for ESAI .
                   000000
**** 202 [main.asm 178]: ERROR --- I/O short addressing must be used for destination operand (X data move field)
202       P:000060 084000            movep             #>$000C7E,x:M_PRRC      ; Set pin direction of PORT C
                   000000
203                                                                            ;sdo0     sdo1         sdo2         sdo3    sdo4    s
do5        hckt        fst         sckt    hckr            fsr         sckr
204                                                                            ;ESAI     GPO          GPI          GPI     GPI     E
SAI        ESAI        ESAI        ESAI    GPO             GPO         NC
205                                                                            ;DAC Data Inhibit IRQA Stereo/Mono  A_In    B_In    A
DC_Data    256FS_CLK0  FS_CLK  64FS_CLK    Gain Switching  Codec_Reset SS_Module
206    
207    
**** 208 [main.asm 184]: ERROR --- I/O short addressing must be used for destination operand (X data move field)
208       P:000062 084000            movep             #>$000000,x:M_PCRB      ; Set up Port B for output
                   000000
**** 209 [main.asm 185]: ERROR --- I/O short addressing must be used for destination operand (X data move field)
209       P:000064 084000            movep             #>$00000F,x:M_PRRB      ; Set up Port B for output
Motorola DSP56300 Assembler  Version 6.2.0   115-04-02  20:37:10  main.asm  Page 6



                   000000
**** 210 [main.asm 186]: ERROR --- I/O short addressing must be used for destination operand (X data move field)
210       P:000066 084000            movep             #>$000008,x:M_PDRB      ; bit 0 = In_EMPH
                   000000
211                                                                            ; bit 1 = OUT_DE_EMPH
212                                                                            ; bit 2 = DIRECT_ON
213                                                                            ; bit 3 = FX_ON
214    
**** 215 [main.asm 191]: ERROR --- I/O short addressing must be used for destination operand (X data move field)
215       P:000068 084000            movep             #>$000003,x:M_RSMA      ; Enable first 2 time slots for receive.
                   000000
**** 216 [main.asm 192]: ERROR --- I/O short addressing must be used for destination operand (X data move field)
216       P:00006A 084000            movep             #>$000000,x:M_RSMB      ;
                   000000
**** 217 [main.asm 193]: ERROR --- I/O short addressing must be used for destination operand (X data move field)
217       P:00006C 084000            movep             #>$000003,x:M_TSMA      ; Enable first 2 time slots for transmit.
                   000000
**** 218 [main.asm 194]: ERROR --- I/O short addressing must be used for destination operand (X data move field)
218       P:00006E 084000            movep             #>$000000,x:M_TSMB
                   000000
**** 219 [main.asm 195]: ERROR --- I/O short addressing must be used for destination operand (X data move field)
219       P:000070 084000            movep             #>$000000,x:M_TX0       ; zero out transmitter 0
                   000000
220    
221                                                                            ;ENABLE ESAI
222       P:000072 0A7020            bset    #0,x:M_RCR                        ; now enable RX0
                   000000
223       P:000074 0A7020            bset    #0,x:M_TCR                        ; now enable TX0
                   000000
224    
225                        ;...Setup Expansion Port A for SRAM...
**** 226 [main.asm 202]: ERROR --- I/O short addressing must be used for destination operand (X data move field)
226       P:000076 084000            movep             #$2406B5,x:M_AAR0
                   000000
227                                                                            ; [23:12] = 0x240 Address used to assert chip select
228                                                                            ; [11:8]  = 0110  Number of address bits to compare =
 6
229                                                                            ; [7]     = 1     Bit Packing Enabled
230                                                                            ; [6]     = 0     Address Mux Disabled
231                                                                            ; [5]     = 1     Y Space Enabled
232                                                                            ; [4]     = 1     X Space Enabled
233                                                                            ; [3]     = 0     P Space Disabled
234                                                                            ; [2]     = 1     Active High for Address Line
235                                                                            ; [1:0]   = 01    SRAM Mode
236    
**** 237 [main.asm 213]: ERROR --- I/O short addressing must be used for destination operand (X data move field)
237       P:000078 084000            movep             #$2003B1,x:M_AAR1
                   000000
238                                                                            ; [23:12] = 0x200 Address used to assert chip select
239                                                                            ; [11:8]  = 0011  Number of address bits to compare =
 3
240                                                                            ; [7]     = 1     Bit Packing Enabled
241                                                                            ; [6]     = 0     Address Mux Disabled
242                                                                            ; [5]     = 1     Y Space Enabled
243                                                                            ; [4]     = 1     X Space Enabled
244                                                                            ; [3]     = 0     P Space Disabled
Motorola DSP56300 Assembler  Version 6.2.0   115-04-02  20:37:10  main.asm  Page 7



245                                                                            ; [2]     = 0     Active Low for Chip Select
246                                                                            ; [1:0]   = 01    SRAM Mode
247    
248    
249                        ;...Bus Control Register for SRAM...
**** 250 [main.asm 226]: ERROR --- I/O short addressing must be used for destination operand (X data move field)
250       P:00007A 084000            movep             #$0124A5,x:M_BCR        ;        0001 0010 0100 0110 0011
                   000000
251                                                                            ;bus request hold off           (bit23=0)
252                                                                            ;bus lock hold off              (bit22=0)
253                                                                            ;bus state                      (bit21=0)
254                                                                            ;default area wait states       (bit20:16=00001)
255                                                                            ;area 3 wait states             (bit15:13=001)
256                                                                            ;area 2 wait states             (bit12:10=001)
257                                                                            ;area 1 wait states             (bit9:5=00011)
258                                                                            ;area 0 wait states             (bit4:0=00011)
259    
260    
261                        ;...Set up SHI (Serial Host Interface to the MCU)...
**** 262 [main.asm 238]: ERROR --- I/O short addressing must be used for destination operand (X data move field)
262       P:00007C 084000            movep             #>$003001,x:M_HCKR      ; Turn Data/Clk Line Filter to max, wide spike tolera
nce (100ns glitch)
                   000000
263                                                                            ; CPHA=1, CPOL=0 : => same as reset/power-on.
**** 264 [main.asm 240]: ERROR --- I/O short addressing must be used for destination operand (X data move field)
264       P:00007E 084000            movep             #>$001189,x:M_HCSR      ;
                   000000
265    
266                        ;...Initialize registers
267       P:000080 44F400            move              #>$000000,x0
                   000000
268       P:000082 209000            move              x0,r0
269       P:000083 061AA0            rep     #26
270       P:000084 445800            move              x0,x:(r0)+              ; clear start of x:mem
271    
272       P:000085 44F400            move              #>$400000,x0            ; Intialize the knob registers
                   400000
273       P:000087 440000            move              x0,x:Knob_1
274       P:000088 440100            move              x0,x:Knob_2
275       P:000089 440200            move              x0,x:Knob_3
276       P:00008A 440300            move              x0,x:Knob_4
277       P:00008B 440400            move              x0,x:Knob_5
278       P:00008C 440500            move              x0,x:Knob_6
279    
280       P:00008D 44F400            move              #>$000000,x0
                   000000
281       P:00008F 05F425            move              #$00ffff,m5             ; Use r5 for the MCU parameter updates.
                   00FFFF
**** 282 [main.asm 258]: ERROR --- I/O short addressing must be used for destination operand (X data move field)
282       P:000091 084000            movep             x0,x:M_HTX              ; Assert HREQ* pin for the MCU.
283    
284    
285                        ;...Initialize Peripheral Interrupt Priority Register for Audio Interrupts and SHI.
**** 286 [main.asm 262]: ERROR --- I/O short addressing must be used for destination operand (X data move field)
286       P:000092 084000            movep             #$000007,x:M_IPRP       ; ESAI int's enabled and top Priority
                   000000
Motorola DSP56300 Assembler  Version 6.2.0   115-04-02  20:37:10  main.asm  Page 8



287                                                                            ; SHI int's enabled and lowest Priority.
288    
289       P:000094 00FCB8            andi    #$FC,mr                           ;enable all interrupt levels
290                                                                            ;clear scaling bits
291    
**** 292 [main.asm 268]: ERROR --- I/O short addressing must be used for destination operand (X data move field)
292       P:000095 084000            movep             #>$000002,x:M_PDRC      ; Take CODEC out of power down mode.
                   000000
293    
294    
295                        ;------------------------------------------------------------
296                        ; Main loop
297                        ;------------------------------------------------------------
298                        LOOP
299       P:000097 000086            wait
300       P:000098 0C0097            jmp     LOOP
301    
302    
303    
304    
305                        ;XXXXXXXXXXXXXXXXXXXXXXXXXXXXXXXXXXXXXXXXXXXXXXXXXXXXXXXXXXXX
306                        ;XXXXXXXXXXXXXXXXXXXXXXXXXXXXXXXXXXXXXXXXXXXXXXXXXXXXXXXXXXXX
307                        ;   4x4 Interrupt Service Routines
308                        ;XXXXXXXXXXXXXXXXXXXXXXXXXXXXXXXXXXXXXXXXXXXXXXXXXXXXXXXXXXXX
309                        ;XXXXXXXXXXXXXXXXXXXXXXXXXXXXXXXXXXXXXXXXXXXXXXXXXXXXXXXXXXXX
310    
311    
312    
313                        ;-----------------------------
314                        ; Host Interrupt
315                        ;-----------------------------
316    
317                        shi_receive
**** 318 [main.asm 294]: ERROR --- I/O short addressing must be used for either source or destination (X data move field)
318       P:000099 084000            movep             x:M_HRX,x:HostCommand   ; Get word from 8031.
                   000000
**** 319 [main.asm 295]: ERROR --- I/O short addressing must be used for destination operand (X data move field)
319       P:00009B 084000            movep             #000000,x:M_HTX         ; Assert HREQ* pin for 8031.
                   000000
320       P:00009D 0B1120            btst    #0,x:HostCommand                  ; $000001 = Write 1 DSP word to X:mem.
321       P:00009E 0D1048            bcs     DoWriteCommand                    ;
                   000005
322       P:0000A0 0B1123            btst    #3,x:HostCommand                  ; $000008 = Send word to the 8031.
323       P:0000A1 0D1048            bcs     DoReadCommand                     ;
                   00000D
324    
325                        DoWriteCommand
326       P:0000A3 0A0080            jclr    #M_HRNE,x:M_HCSR,*                ; Wait for address.
                   0000A3
**** 327 [main.asm 303]: ERROR --- I/O short addressing must be used for source operand (X data move field)
327       P:0000A5 084000            movep             x:M_HRX,r5              ; Store address to write to.
**** 328 [main.asm 304]: ERROR --- I/O short addressing must be used for destination operand (X data move field)
328       P:0000A6 084000            movep             #>000000,x:M_HTX        ; Assert HREQ* pin for 8031.
                   000000
329    
330       P:0000A8 0A0080            jclr    #M_HRNE,x:M_HCSR,*                ; Wait for data
Motorola DSP56300 Assembler  Version 6.2.0   115-04-02  20:37:10  main.asm  Page 9



                   0000A8
**** 331 [main.asm 307]: ERROR --- I/O short addressing must be used for either source or destination (X data move field)
331       P:0000AA 084000            movep             x:M_HRX,x:(r5)          ; Write data.
                   000000
**** 332 [main.asm 308]: ERROR --- I/O short addressing must be used for destination operand (X data move field)
332       P:0000AC 084000            movep             #000000,x:M_HTX         ; Assert HREQ* pin for 8031.
                   000000
333       P:0000AE 000004            rti
334    
**** 335 [main.asm 311]: ERROR --- Phasing error: DoReadCommand
335                        DoReadCommand
336       P:0000AF 0A0080            jclr    #M_HRNE,x:M_HCSR,*
                   0000AF
**** 337 [main.asm 313]: ERROR --- I/O short addressing must be used for source operand (X data move field)
337       P:0000B1 084000            movep             x:M_HRX,r5              ; Store Address to read from
**** 338 [main.asm 314]: ERROR --- I/O short addressing must be used for destination operand (X data move field)
338       P:0000B2 084000            movep             #>000000,x:M_HTX
                   000000
339    
340       P:0000B4 0A0080            jclr    #M_HRNE,x:M_HCSR,*
                   0000B4
**** 341 [main.asm 317]: ERROR --- I/O short addressing must be used for source operand (X data move field)
341       P:0000B6 084000            movep             x:M_HRX,n5
**** 342 [main.asm 318]: WARNING --- Pipeline stall reading register written in instruction at address: P:0000B6 (X data move field)
342       P:0000B7 07E500            movep             x:(r5),x:<<M_HTX        ; Send Data at specified address to the 8031
343    
344       P:0000B8 0A0080            jclr    #M_HRNE,x:M_HCSR,*
                   0000B8
**** 345 [main.asm 321]: ERROR --- I/O short addressing must be used for source operand (X data move field)
345       P:0000BA 084000            movep             x:M_HRX,n5
346       P:0000BB 07F400            movep             #>000000,x:<<M_HTX
                   000000
347       P:0000BD 000004            rti
348    
349    
350                        ;-----------------------------
351                        ; Receive Exception Interrupt
352                        ;-----------------------------
**** 353 [main.asm 329]: ERROR --- Phasing error: esai_rxe_isr
353                        esai_rxe_isr                                        ; ESAI RECEIVE ISR
354    
355       P:0000BE 0A7007            bclr    #7,x:M_SAISR                      ; Read SAISR to clear receive
                   000000
356                                                                            ; overrun error flag
357       P:0000C0 0A700E            bclr    #14,x:M_SAISR                     ; Read SAISR to clear transmit
                   000000
358                                                                            ; underrun error flag
**** 359 [main.asm 335]: ERROR --- I/O short addressing must be used for either source or destination (X data move field)
359       P:0000C2 084000            movep             x:M_RX0,x:RightRx       ;
                   000000
**** 360 [main.asm 336]: ERROR --- I/O short addressing must be used for either source or destination (X data move field)
360       P:0000C4 084000            movep             x:RightTx,x:M_TX0       ;
                   000000
361    
362       P:0000C6 000004            rti
363    
Motorola DSP56300 Assembler  Version 6.2.0   115-04-02  20:37:10  main.asm  Page 10



364    
365    
366                        ;-----------------------------
367                        ; Receive Interrupt
368                        ;-----------------------------
**** 369 [main.asm 345]: ERROR --- Phasing error: esai_rx_isr
369                        esai_rx_isr
**** 370 [main.asm 346]: ERROR --- I/O short addressing must be used for either source or destination (X data move field)
370       P:0000C7 084000            movep             x:M_RX0,x:RightRx
                   000000
**** 371 [main.asm 347]: ERROR --- I/O short addressing must be used for either source or destination (X data move field)
371       P:0000C9 084000            movep             x:RightTx,x:M_TX0
                   000000
372       P:0000CB 000004            rti
373    
374    
375                        ;-----------------------------
376                        ; Receive Even Slot Interrupt
377                        ;-----------------------------
378    
**** 379 [main.asm 355]: ERROR --- Phasing error: esai_rxeven_isr
379                        esai_rxeven_isr
**** 380 [main.asm 356]: ERROR --- I/O short addressing must be used for either source or destination (X data move field)
380       P:0000CC 084000            movep             x:M_RX0,x:LeftRx
                   000000
**** 381 [main.asm 357]: ERROR --- I/O short addressing must be used for either source or destination (X data move field)
381       P:0000CE 084000            movep             x:LeftTx,x:M_TX0
                   000000
382    
383                                                                            ;Process the scaling of knob values to generate coeff
icients
384                                                                            ;   This is being called per sample, but could be don
e at a
385                                                                            ;   slower rate if bandwidth is needed
386       P:0000D0 0D1080            bsr     Generate_Coeffs
                   00005B
387    
388       P:0000D2 4C8100            move                          y:LeftOutput,x0 ;
389       P:0000D3 440E00            move              x0,x:LeftTx             ; Transmit the output from the last sample period.
390       P:0000D4 4C8300            move                          y:RightOutput,x0 ;
391       P:0000D5 440F00            move              x0,x:RightTx            ; Transmit the output from the last sample period.
392    
393       P:0000D6 568C00            move              x:LeftRx,a              ; receive left
394       P:0000D7 578D00            move              x:RightRx,b             ; receive right
395    
396       P:0000D8 5E0000            move                          a,y:LeftInput ; Save Current Left  input sample
397       P:0000D9 5F0200            move                          b,y:RightInput ; Save Current Right input sample
398    
399                                                                            ;Note: r5 and n5 are currently reserved for Host Inte
rrupts
400    
401                                                                            ;Process Left Channel   (left input sample is in a)
402       P:0000DA 66F400            move              #>Switch_1,r6           ; point to x:mem (switch states)
                   000006
403       P:0000DC 64F400            move              #>Filter_1_K,r4         ; point to x:mem (coefficients)
                   00001A
Motorola DSP56300 Assembler  Version 6.2.0   115-04-02  20:37:10  main.asm  Page 11



404       P:0000DE 63F400            move              #>Filter_1_A_Left,r3    ; point to y:mem (filter mem)
                   000004
405       P:0000E0 0D1080            bsr     TwoBand_EQ                        ; input in a, output in a
                   00001D
406       P:0000E2 5E0100            move                          a,y:LeftOutput
407    
408                                                                            ;Process Right Channel  (r6 is currently pointing to 
Switch 1)
409       P:0000E3 5E8200            move                          y:RightInput,a ; load right input sample in a
410       P:0000E4 64F400            move              #>Filter_1_K,r4         ; point to x:mem (coefficients)
                   00001A
411       P:0000E6 63F400            move              #>Filter_1_A_Right,r3   ; point to y:mem (filter mem)
                   000008
412       P:0000E8 0D1080            bsr     TwoBand_EQ                        ; input in a, output in a
                   000015
413       P:0000EA 5E0300            move                          a,y:RightOutput
414    
415                                                                            ;Use Bottom layer of FootSwitch to turn on/off analog
 bypass
416                                                                            ;   take the momentary footswitch signal (pulse) and 
generate a latched (step) control signal
417       P:0000EB 568900            move              x:FootSwitch_BottomLayer,a ; load unmodified footswitch input
418       P:0000EC 458900            move              x:FootSwitch_BottomLayer,x1 ; load unmodified footswitch input
419       P:0000ED 44A117            not     a         x:FootLatchMem,x0       ; not a  (also, load the previous momentary signal in
to x0)
420       P:0000EE 452146            and     x0,a      x1,x:FootLatchMem       ; x0 & a (also, store current momentary signal for ne
xt iteration)
421       P:0000EF 44A000            move              x:FootLatch,x0          ; load previous latched value
422       P:0000F0 200043            eor     x0,a                              ; generate current latched (step) control signal
**** 423 [main.asm 399]: WARNING --- Pipeline stall reading register written in previous instruction (X data move field)
423       P:0000F1 542000            move              a1,x:FootLatch          ; store latched footswitch signal created from moment
ary footswitch
424    
425       P:0000F2 56A000            move              x:FootLatch,a           ; load latching footswitch signal
**** 426 [main.asm 402]: WARNING --- Pipeline stall reading register written in previous instruction
426       P:0000F3 0ACE00            jclr    #0,a,ANALOG_BYPASS                ; bit clear = bypass
                   0000F9
**** 427 [main.asm 403]: ERROR --- I/O short addressing must be used for destination operand (X data move field)
427       P:0000F5 084000            movep             #>$000008,x:M_PDRB      ; bit 3 on  = FX_ON
                   000000
428       P:0000F7 0A0B20            bset    #0,x:LED_Green                    ; turn led on to indicate effect on
429       P:0000F8 0AF080            jmp     END_ANALOG_BYPASS
                   0000FC
**** 430 [main.asm 406]: ERROR --- Phasing error: ANALOG_BYPASS
430                        ANALOG_BYPASS:
**** 431 [main.asm 407]: ERROR --- I/O short addressing must be used for destination operand (X data move field)
431       P:0000FA 084000            movep             #>$000004,x:M_PDRB      ; bit 2 on  = DIRECT_ON
                   000000
432       P:0000FC 0A0B00            bclr    #0,x:LED_Green                    ; turn led off to indicate effect off
**** 433 [main.asm 409]: ERROR --- Phasing error: END_ANALOG_BYPASS
433                        END_ANALOG_BYPASS:
434    
435       P:0000FD 000004            rti                                       ; return from interrupt
436    
437                                                                            ;Notes: The DSP path has a +3dB of gain applied in an
alog at the DSP output;
Motorola DSP56300 Assembler  Version 6.2.0   115-04-02  20:37:10  main.asm  Page 12



438                                                                            ;       this gain was intended for cases where more o
utput headroom was needed.
439                                                                            ;       I am not normalizing for this output gain in 
this example code.
440                                                                            ;
441                                                                            ;       Port C contains sense lines for the input and
 output.  You may
442                                                                            ;       use these to alter your algorithms to behave 
differently in various
443                                                                            ;       mono/stereo input/output configurations if yo
u wish.
444                                                                            ;
445                                                                            ;       Port B allows the DSP digital control over th
e following analog
446                                                                            ;       sections of the Dock board: DSP path Pre-Emph
asis filtering,
447                                                                            ;       DSP path De-Emphais filtering, DSP Patch Enab
le, and Dry Path enable.
448                                                                            ;       In this example code, I leave the filtering o
ff and use the
449                                                                            ;       dry path for analog bypass.
450                                                                            ;
451                                                                            ;               r5 and n5 are reserved by the Host In
terrupt process
452                                                                            ;
453                                                                            ;
454    
455    
456                        ;XXXXXXXXXXXXXXXXXXXXXXXXXXXXXXXXXXXXXXXXXXXXXXXXXXXXXXXXXXXX
457                        ;XXXXXXXXXXXXXXXXXXXXXXXXXXXXXXXXXXXXXXXXXXXXXXXXXXXXXXXXXXXX
458                        ; Common Subroutines
459                        ;XXXXXXXXXXXXXXXXXXXXXXXXXXXXXXXXXXXXXXXXXXXXXXXXXXXXXXXXXXXX
460                        ;XXXXXXXXXXXXXXXXXXXXXXXXXXXXXXXXXXXXXXXXXXXXXXXXXXXXXXXXXXXX
461    
462    
463                        ;-----------------------------------------------------------------------
464                        ;   TwoBand_EQ
465                        ;       This sub routine processes two state variable filters a
466                        ;       with selectable filter type and shelving gain (-14dB to +14dB)
467                        ;
468                        ;       INPUT:      a  = audio input to be filtered
469                        ;                   r6 = pointer to switch state memory
470                        ;                   r4 = pointer to filter coefficients
471                        ;                   r3 = pointer to filter memory
472                        ;
473                        ;       OUTPUT:     a  = filtered output
474                        ;
475                        ;
**** 476 [main.asm 452]: ERROR --- Phasing error: TwoBand_EQ
476                        TwoBand_EQ:
477       P:0000FE 0D1080            bsr     SV_Filter                         ; process the state variable filter
                   000022
478                                                                            ;select filter type
479       P:000100 56DE00            move              x:(r6)+,a
**** 480 [main.asm 456]: WARNING --- Pipeline stall reading register written in previous instruction
480       P:000101 0ACE21            jset    #1,a,Highpass_1_L                 ; x0 = hp_output
Motorola DSP56300 Assembler  Version 6.2.0   115-04-02  20:37:10  main.asm  Page 13



                   000106
481       P:000103 0ACE20            jset    #0,a,Bandpass_1_L                 ; b  = bp_output
                   00010A
482       P:000105 0AF080            jmp     EndSwitch_1_L                     ; y0 = lp_output
                   00010B
**** 483 [main.asm 459]: ERROR --- Phasing error: Highpass_1_L
483                        Highpass_1_L:
484       P:000107 208F00            move              x0,b
**** 485 [main.asm 461]: WARNING --- Pipeline stall reading register written in previous instruction (X data move field)
485       P:000108 21E600            move              b,y0
486       P:000109 0AF080            jmp     EndSwitch_1_L
                   00010B
**** 487 [main.asm 463]: ERROR --- Phasing error: Bandpass_1_L
487                        Bandpass_1_L:
488       P:00010B 21E600            move              b,y0
**** 489 [main.asm 465]: ERROR --- Phasing error: EndSwitch_1_L
489                        EndSwitch_1_L:
490       P:00010C 2000E0            mpy     x1,y0,a                           ; process shelving scalar
491       P:00010D 0C1D04            asl     #2,a,a                            ; add gain to extend shelving range -14dB to +14dB
492       P:00010E 200070            add     y1,a                              ; add filter input to create shelf
493    
494       P:00010F 0D1080            bsr     SV_Filter                         ; process the state variable filter
                   000011
495                                                                            ;select filter type
496       P:000111 56D600            move              x:(r6)-,a
**** 497 [main.asm 473]: WARNING --- Pipeline stall reading register written in previous instruction
497       P:000112 0ACE21            jset    #1,a,Highpass_2_L                 ; x0 = hp_output
                   000117
498       P:000114 0ACE20            jset    #0,a,Bandpass_2_L                 ; b  = bp_output
                   00011B
499       P:000116 0AF080            jmp     EndSwitch_2_L                     ; y0 = lp_output
                   00011C
**** 500 [main.asm 476]: ERROR --- Phasing error: Highpass_2_L
500                        Highpass_2_L:
501       P:000118 208F00            move              x0,b
**** 502 [main.asm 478]: WARNING --- Pipeline stall reading register written in previous instruction (X data move field)
502       P:000119 21E600            move              b,y0
503       P:00011A 0AF080            jmp     EndSwitch_2_L
                   00011C
**** 504 [main.asm 480]: ERROR --- Phasing error: Bandpass_2_L
504                        Bandpass_2_L:
505       P:00011C 21E600            move              b,y0
**** 506 [main.asm 482]: ERROR --- Phasing error: EndSwitch_2_L
506                        EndSwitch_2_L:
507       P:00011D 2000E0            mpy     x1,y0,a                           ; process shelving scalar
508       P:00011E 0C1D04            asl     #2,a,a                            ; add gain to extend shelving range -14dB to +14dB
509       P:00011F 200070            add     y1,a                              ; add filter input to create shelf
510       P:000120 00000C            rts
511    
512    
513                        ;-----------------------------------------------------------------------
514                        ;   SV_Filter
515                        ;       This sub routine is a state variable band-pass
516                        ;       This filter outputs low-pass, band-pass, and high-pass filter types
517                        ;
518                        ;       INPUT:      a  = audio input to be filtered
Motorola DSP56300 Assembler  Version 6.2.0   115-04-02  20:37:10  main.asm  Page 14



519                        ;             x:(r4)+0 = frequency coefficient,  K = 2*pi*fc/Fs
520                        ;             x:(r4)+1 = bandwidth coefficient,  1/(2Q) where Q is bandwidth
521                        ;             x:(r4)+2 = shelving  coefficient
522                        ;
523                        ;       OUTPUTS:    y0 = lp_output
524                        ;                   b  = bp_output
525                        ;                   x0 = hp_output
526                        ;                   a  = hp_output
527                        ;                   x1 = next coeff
528                        ;                   y1 = input
529                        ;
**** 530 [main.asm 506]: ERROR --- Phasing error: SV_Filter
530                        SV_Filter:
531       P:000121 5FDB00            move                          y:(r3)+,b   ; b  = a(n-1)
532       P:000122 E4FC00            move              x:(r4)+,x1  y:(r3)-,y0  ; x1 = K                        y0  = y(n-1)
533       P:000123 44DCEA            mac     x1,y0,b   x:(r4)+,x0              ; b  = K * y(n-1) + a(n-1)      x0  = 1/2Q
534       P:000124 21C7D4            mpy     -y0,x0,a  a,y1                    ; a  = -y(n-1)/2Q               y1  = x(n)
535       P:000125 5F63C2            mac     y1,x0,a               b,y:(r3)    ; a  = (x(n)-y(n-1))/2Q         store a(n)
536       P:000126 200032            asl     a                                 ; a  = (x(n)-y(n-1))/Q
537       P:000127 20CF14            sub     b,a       y0,b                    ; a  = (x(n)-y(n-1))/Q - a(n)   b  = y(n-1)
**** 538 [main.asm 514]: WARNING --- Pipeline stall reading register written in previous instruction (X data move field)
538       P:000128 21C400            move              a,x0                    ; x0 = HP output
539       P:000129 F4FCAA            mac     x1,x0,b   x:(r4)+,x1  y:(r3)+,y0  ; b  = k(HP) + y(n-1)           x1 = next coeff y0 = 
LP output
**** 540 [main.asm 516]: WARNING --- Pipeline stall reading register written in previous instruction (Y data move field)
540       P:00012A 5F5B00            move                          b,y:(r3)+   ; store next y(n-1)
541       P:00012B 00000C            rts
542    
543    
544                        ;-----------------------------------------------------------------------
545                        ;   Generate_Coeffs
546                        ;       This sub routine takes the knob values that range from a 24 bit
547                        ;       two's compliment 0 to 1 (0x000000 to 0x7FFFFF) and converts them
548                        ;       for use as coefficients.
549                        ;
550                        ;       This is example code is setup so that Fs = 39062.5
551                        ;
**** 552 [main.asm 528]: ERROR --- Phasing error: Generate_Coeffs
552                        Generate_Coeffs:
553                                                                            ;Convert Knob 1 to Filter 1's Frequency
554       P:00012C 448000            move              x:Knob_1,x0             ; load Knob 1's current value (range = 0 to 1)
555       P:00012D 56F400            move              #>$010789,a             ;  a =   50 Hz
                   010789
556       P:00012F 46F400            move              #>$65EA0D,y0            ; y0 = 4950 Hz
                   65EA0D
557                                                                            ; for frequency = 4950 Hz, the coefficient value will
 be 2*pi*4950/Fs = 0.796205242
558                                                                            ; that number is then multiplied by (2^23)-1 for 24 b
it two's compliment = 6679053 decimal = 65EA0D hex
559       P:000131 2000D2            mac     x0,y0,a                           ; a  =  4950 * value + 50; register a now ranges betw
een 50 and 5000 Hz
**** 560 [main.asm 536]: WARNING --- Pipeline stall reading register written in previous instruction (X data move field)
560       P:000132 561A00            move              a,x:Filter_1_K          ; store current frequency value
561       P:000133 561600            move              a,x:Debug_Read_from_DSP_1 ; DEBUG Example, send filter 1 frequency coefficien
t to GUI
562    
Motorola DSP56300 Assembler  Version 6.2.0   115-04-02  20:37:10  main.asm  Page 15



563                                                                            ;Convert Knob 4 to Filter 2's Frequency
564       P:000134 448300            move              x:Knob_4,x0             ; load Knob 4's value
565       P:000135 56F400            move              #>$010789,a             ; a  =   50 Hz
                   010789
566       P:000137 2000D2            mac     x0,y0,a                           ; a  =  4950 * value + 50
**** 567 [main.asm 543]: WARNING --- Pipeline stall reading register written in previous instruction (X data move field)
567       P:000138 561D00            move              a,x:Filter_2_K          ; store current frequency value
568       P:000139 561700            move              a,x:Debug_Read_from_DSP_2 ; DEBUG Example, send filter 2 frequency coefficien
t to GUI
569    
570                                                                            ;Convert Knob 2 to Filter 1's Q
571       P:00013A 448100            move              x:Knob_2,x0             ; load Knob 2's value
572       P:00013B 46F400            move              #>$866667,y0            ; y0 = 1/2Q
                   866667
573       P:00013D 56F400            move              #>$7FFFFF,a             ; a  = 1/2Q, where Q = .5
                   7FFFFF
574       P:00013F 2000D2            mac     x0,y0,a                           ; a  = 1/2Q, where Q ranges between .5 and 10
**** 575 [main.asm 551]: WARNING --- Pipeline stall reading register written in previous instruction (X data move field)
575       P:000140 561B00            move              a,x:Filter_1_Q          ; store current 1/2Q value
576       P:000141 561800            move              a,x:Debug_Read_from_DSP_3 ; DEBUG Example, send filter 1 bandwidth to GUI
577    
578                                                                            ;Convert Knob 5 to Filter 2's Q
579       P:000142 448400            move              x:Knob_5,x0             ; load Knob 5's value
580       P:000143 56F400            move              #>$7FFFFF,a             ; a  = 1/2Q, where Q = .5
                   7FFFFF
581       P:000145 2000D2            mac     x0,y0,a                           ; a  = 1/2Q, where Q ranges between .5 and 10
**** 582 [main.asm 558]: WARNING --- Pipeline stall reading register written in previous instruction (X data move field)
582       P:000146 561E00            move              a,x:Filter_2_Q          ; store current 1/2Q value
583       P:000147 561900            move              a,x:Debug_Read_from_DSP_4 ; DEBUG Example, send filter 2 bandwidth to GUI
584    
585                                                                            ;Convert Knob 3 to Filter 1's Shelving
586       P:000148 568200            move              x:Knob_3,a              ; load Knob 3's value (range = 0 to 1)
587       P:000149 44F400            move              #>$400000,x0            ; x0 = .5
                   400000
588       P:00014B 200044            sub     x0,a                              ; (range = -.5 to .5)
589       P:00014C 014085            cmp     #0,a                              ; compare range to zero
590       P:00014D 0AF0A9            jlt     CuttingShelve1                    ; jump if less than zero
                   000151
591       P:00014F 200032            asl     a                                 ; (range = 0  to 1)
592       P:000150 0AF080            jmp     DoneShelve1                       ; jump to dove shelve 1
                   000154
**** 593 [main.asm 569]: ERROR --- Phasing error: CuttingShelve1
593                        CuttingShelve1                                      ; generate negative shelve range
594       P:000152 10B400            move              #>$333333,x0 a,y0       ; x0 = .4
                   333333
595       P:000154 2000D0            mpy     x0,y0,a                           ; (range = -.2 to 0)
**** 596 [main.asm 572]: ERROR --- Phasing error: DoneShelve1
596                        DoneShelve1                                         ; mark end of shelve coeff curve generation
597                                                                            ; coefficient range = -.2 to 1 for a finale shelve ra
nge of -14dB to +14dB
**** 598 [main.asm 574]: WARNING --- Pipeline stall reading register written in previous instruction (X data move field)
598       P:000155 561C00            move              a,x:Filter_1_Shelve     ; store current shelving (range -.25 to 1)
599    
600                                                                            ;Convert Knob 6 to Filter 2's Shelving
601       P:000156 568500            move              x:Knob_6,a              ; load Knob 6's value (range = 0 to 1)
602       P:000157 44F400            move              #>$400000,x0            ; x0 = .5
Motorola DSP56300 Assembler  Version 6.2.0   115-04-02  20:37:10  main.asm  Page 16



                   400000
603       P:000159 200044            sub     x0,a                              ; (range = -.5 to .5)
604       P:00015A 014085            cmp     #0,a                              ; compare range to zero
605       P:00015B 0AF0A9            jlt     CuttingShelve2                    ; jump if less than zero
                   00015F
606       P:00015D 200032            asl     a                                 ; (range = 0  to 1)
607       P:00015E 0AF080            jmp     DoneShelve2                       ; jump to dove shelve 1
                   000162
**** 608 [main.asm 584]: ERROR --- Phasing error: CuttingShelve2
608                        CuttingShelve2                                      ; generate negative shelve range
609       P:000160 10B400            move              #>$333333,x0 a,y0       ; x0 = .4
                   333333
610       P:000162 2000D0            mpy     x0,y0,a                           ; (range = -.2 to 0)
**** 611 [main.asm 587]: ERROR --- Phasing error: DoneShelve2
611                        DoneShelve2                                         ; mark end of shelve coeff curve generation
612                                                                            ; coefficient range = -.2 to 1 for a finale shelve ra
nge of -14dB to +14dB
**** 613 [main.asm 589]: WARNING --- Pipeline stall reading register written in previous instruction (X data move field)
613       P:000163 561F00            move              a,x:Filter_2_Shelve     ; store current shelving
614       P:000164 00000C            rts

64   Errors
15   Warnings


